{
  "AWSEBDockerrunVersion": "1",
  "Image": {
    "Name": "registry.gitlab.com/wgu1035327/d288-vacation-booking-server",
    "Update": "true"
  },
  "Authentication": {
    "Bucket": "elasticbeanstalk-us-east-2-835421043738",
    "Key": "config.json"
  },
  "Ports": [
    {
      "ContainerPort": 5000,
      "HostPort": 8000
    }
  ]
}
